!!!SBtab DocumentName='E. coli central carbon metabolism - balanced parameters' SBtabVersion='1.0'			
!!SBtab TableID='Configuration' TableType='Config'			
!Option	!Value	!Comment	
algorithm	MDF	ECM, or MDF	
p_h	7.5		
ionic_strength	250 mM		
p_mg	3		
stdev_factor	1.96		
			
!!SBtab TableID='Reaction' TableType='Reaction'			
!ID	!ReactionFormula		
ADK1	amp + atp <=> 2.0 adp		
EDA	2ddg6p <=> g3p + pyr		
EDD	6pgc --> 2ddg6p + h2o		
ENO	2pg <=> h2o + pep		
FBA	fdp <=> dhap + g3p		
FBP	fdp + h2o <=> f6p + pi		
GAPD	g3p + nad + pi <=> 13dpg + nadh		
GND	6pgc + nadp <=> co2 + nadph + ru5p__D		
PGK	3pg + atp <=> 13dpg + adp		
PGM	2pg <=> 3pg		
PPS	atp + h2o + pyr <=> amp + pep + pi		
RPE	ru5p__D <=> xu5p__D		
RPI	r5p <=> ru5p__D		
TALA	g3p + s7p <=> e4p + f6p		
TKT1	r5p + xu5p__D <=> g3p + s7p		
TKT2	e4p + xu5p__D <=> f6p + g3p		
TPI	dhap <=> g3p		
			
			
!!SBtab TableID='Compound' TableType='Compound'			
!ID	!Identifiers		
h2o	bigg.metabolite:h2o		
atp	bigg.metabolite:atp		
nad	bigg.metabolite:nad		
nadh	bigg.metabolite:nadh		
nadph	bigg.metabolite:nadph		
nadp	bigg.metabolite:nadp		
adp	bigg.metabolite:adp		
pi	bigg.metabolite:pi		
co2	bigg.metabolite:co2		
pyr	bigg.metabolite:pyr		
amp	bigg.metabolite:amp		
2ddg6p	bigg.metabolite:2ddg6p		
6pgc	bigg.metabolite:6pgc		
g3p	bigg.metabolite:g3p		
2pg	bigg.metabolite:2pg		
3pg	bigg.metabolite:3pg		
fdp	bigg.metabolite:fdp		
13dpg	bigg.metabolite:13dpg		
ru5p__D	bigg.metabolite:ru5p__D		
pep	bigg.metabolite:pep		
xu5p__D	bigg.metabolite:xu5p__D		
r5p	bigg.metabolite:r5p		
s7p	bigg.metabolite:s7p		
e4p	bigg.metabolite:e4p		
f6p	bigg.metabolite:f6p		
dhap	bigg.metabolite:dhap		
			
!!SBtab TableID='Flux' TableType='Quantity' Unit='mM/s'			
!QuantityType	!Reaction	!Value	
rate of reaction	ADK1	2	
rate of reaction	EDA	3	
rate of reaction	EDD	3	
rate of reaction	ENO	-2	
rate of reaction	FBA	-2	
rate of reaction	FBP	2	
rate of reaction	GAPD	-2	
rate of reaction	GND	-3	
rate of reaction	PGK	2	
rate of reaction	PGM	2	
rate of reaction	PPS	2	
rate of reaction	RPE	-2	
rate of reaction	RPI	1	
rate of reaction	TALA	-1	
rate of reaction	TKT1	-1	
rate of reaction	TKT2	-1	
rate of reaction	TPI	-2	
			
!!SBtab TableID='ConcentrationConstraint' TableType='Quantity' Unit='mM'			
!QuantityType	!Compound	!Min	!Max
concentration	pi	10	10
concentration	nadp	0.1	0.1
concentration	nadph	0.1	0.1
concentration	nadh	0.1	0.1
concentration	nad	1	1
concentration	atp	5	5
concentration	adp	0.5	0.5
concentration	co2	0.01	0.01
concentration	pyr	0.001	10
concentration	amp	0.001	10
concentration	2ddg6p	0.001	10
concentration	6pgc	0.001	10
concentration	g3p	0.001	10
concentration	2pg	0.001	10
concentration	3pg	0.001	10
concentration	fdp	0.001	10
concentration	13dpg	0.001	10
concentration	ru5p__D	0.001	10
concentration	pep	0.001	10
concentration	xu5p__D	0.001	10
concentration	r5p	0.001	10
concentration	s7p	0.001	10
concentration	e4p	0.001	10
concentration	f6p	0.001	10
concentration	dhap	0.001	10
